<svg xmlns="http://www.w3.org/2000/svg" width="43.575" height="43.575" viewBox="0 0 43.575 43.575">
  <path id="logo-facebook" d="M105.169,64H66.406A2.407,2.407,0,0,0,64,66.406v38.764a2.407,2.407,0,0,0,2.406,2.406H85.787V90.327H80.579V83.972h5.209v-4.7c0-5.628,3.9-8.692,8.931-8.692,2.406,0,4.993.182,5.594.261v5.878H96.307c-2.735,0-3.257,1.294-3.257,3.2v4.051h6.514l-.851,6.355H93.05v17.248h12.119a2.407,2.407,0,0,0,2.406-2.406V66.406A2.407,2.407,0,0,0,105.169,64Z" transform="translate(-64 -64)" fill="#fff"/>
</svg>
