<svg xmlns="http://www.w3.org/2000/svg" width="19.65" height="24.453" viewBox="0 0 19.65 24.453">
  <path id="Path_314" data-name="Path 314" d="M755.54,464.8v6.114l-19.65,9.17v-7.248l10.611-4.8-10.611-4.8v-7.6Z" transform="translate(-735.89 -455.634)" fill="#00fcb6"/>
</svg>
